…
``` r
all_files |> 
  filter(year(datetime) == 2020 & day(datetime) == 1 & month(datetime) == 1) |> 
  filter(name %in% c("Argonaut Rd")) |> 
  arrange(datetime) 
```

    ## # A tibble: 192 × 9
    ##      seconds pressure_psi temperature_f depth_ft barometric_pressure_psi name   
    ##        <dbl>        <dbl>         <dbl>    <dbl>                   <dbl> <chr>  
    ##  1 33145200.        0.659          46.4     1.52                    14.1 Argona…
    ##  2 33145200.        0.659          46.4     1.52                    14.1 Argona…
    ##  3 33146100.        0.647          46.3     1.50                    14.1 Argona…
    ##  4 33146100.        0.647          46.3     1.50                    14.1 Argona…
    ##  5 33147000.        0.653          46.3     1.51                    14.1 Argona…
    ##  6 33147000.        0.653          46.3     1.51                    14.1 Argona…
    ##  7 33147900.        0.648          46.4     1.50                    14.1 Argona…
    ##  8 33147900.        0.648          46.4     1.50                    14.1 Argona…
    ##  9 33148800.        0.652          46.3     1.50                    14.1 Argona…
    ## 10 33148800.        0.652          46.3     1.50                    14.1 Argona…
    ## # ℹ 182 more rows
    ## # ℹ 3 more variables: file_name <chr>, datetime <dttm>, method <chr>
…
